||||||||||||||||||||||||||||||||||||||||||||||||||||||
||													||
|| NOTE : Internet connection required				||	
||													||
|| 1. install  WebStorm-2016.1.3.exe				||
||													||
|| 2. After installation run IDE 					||
|| 													||		
|| 3. Open it & it will ask for activation			||	
||													||
|| 4. Check the license server radio Button 		||
|| 													||
|| 5. Fill the server as : http://idea.qinxi1992.cn ||
|| 													||
|| 6. Click On Ok Button							||	
||													||	
|| 7. Enjoy :)										||
||													||				
||||||||||||||||||||||||||||||||||||||||||||||||||||||